('C:\\Users\\hsoo\\workspace\\ml-study\\test\\build\\predic_onnx\\predic_onnx.pkg',
 {'BINARY': True,
  'DATA': True,
  'EXECUTABLE': True,
  'EXTENSION': True,
  'PYMODULE': True,
  'PYSOURCE': True,
  'PYZ': False,
  'SPLASH': True,
  'SYMLINK': False},
 [('pyi-contents-directory _internal', '', 'OPTION'),
  ('PYZ-00.pyz',
   'C:\\Users\\hsoo\\workspace\\ml-study\\test\\build\\predic_onnx\\PYZ-00.pyz',
   'PYZ'),
  ('struct',
   'C:\\Users\\hsoo\\workspace\\ml-study\\test\\build\\predic_onnx\\localpycs\\struct.pyc',
   'PYMODULE'),
  ('pyimod01_archive',
   'C:\\Users\\hsoo\\workspace\\ml-study\\test\\build\\predic_onnx\\localpycs\\pyimod01_archive.pyc',
   'PYMODULE'),
  ('pyimod02_importers',
   'C:\\Users\\hsoo\\workspace\\ml-study\\test\\build\\predic_onnx\\localpycs\\pyimod02_importers.pyc',
   'PYMODULE'),
  ('pyimod03_ctypes',
   'C:\\Users\\hsoo\\workspace\\ml-study\\test\\build\\predic_onnx\\localpycs\\pyimod03_ctypes.pyc',
   'PYMODULE'),
  ('pyimod04_pywin32',
   'C:\\Users\\hsoo\\workspace\\ml-study\\test\\build\\predic_onnx\\localpycs\\pyimod04_pywin32.pyc',
   'PYMODULE'),
  ('pyiboot01_bootstrap',
   'C:\\Users\\hsoo\\miniconda3\\envs\\onnx-runtime\\Lib\\site-packages\\PyInstaller\\loader\\pyiboot01_bootstrap.py',
   'PYSOURCE'),
  ('pyi_rth_inspect',
   'C:\\Users\\hsoo\\miniconda3\\envs\\onnx-runtime\\Lib\\site-packages\\PyInstaller\\hooks\\rthooks\\pyi_rth_inspect.py',
   'PYSOURCE'),
  ('pyi_rth_pkgutil',
   'C:\\Users\\hsoo\\miniconda3\\envs\\onnx-runtime\\Lib\\site-packages\\PyInstaller\\hooks\\rthooks\\pyi_rth_pkgutil.py',
   'PYSOURCE'),
  ('pyi_rth_multiprocessing',
   'C:\\Users\\hsoo\\miniconda3\\envs\\onnx-runtime\\Lib\\site-packages\\PyInstaller\\hooks\\rthooks\\pyi_rth_multiprocessing.py',
   'PYSOURCE'),
  ('predic_onnx',
   'C:\\Users\\hsoo\\workspace\\ml-study\\test\\predic_onnx.py',
   'PYSOURCE'),
  ('python311.dll',
   'C:\\Users\\hsoo\\miniconda3\\envs\\onnx-runtime\\python311.dll',
   'BINARY'),
  ('select.pyd',
   'C:\\Users\\hsoo\\miniconda3\\envs\\onnx-runtime\\DLLs\\select.pyd',
   'EXTENSION'),
  ('_hashlib.pyd',
   'C:\\Users\\hsoo\\miniconda3\\envs\\onnx-runtime\\DLLs\\_hashlib.pyd',
   'EXTENSION'),
  ('_lzma.pyd',
   'C:\\Users\\hsoo\\miniconda3\\envs\\onnx-runtime\\DLLs\\_lzma.pyd',
   'EXTENSION'),
  ('_bz2.pyd',
   'C:\\Users\\hsoo\\miniconda3\\envs\\onnx-runtime\\DLLs\\_bz2.pyd',
   'EXTENSION'),
  ('pyexpat.pyd',
   'C:\\Users\\hsoo\\miniconda3\\envs\\onnx-runtime\\DLLs\\pyexpat.pyd',
   'EXTENSION'),
  ('_ssl.pyd',
   'C:\\Users\\hsoo\\miniconda3\\envs\\onnx-runtime\\DLLs\\_ssl.pyd',
   'EXTENSION'),
  ('unicodedata.pyd',
   'C:\\Users\\hsoo\\miniconda3\\envs\\onnx-runtime\\DLLs\\unicodedata.pyd',
   'EXTENSION'),
  ('_decimal.pyd',
   'C:\\Users\\hsoo\\miniconda3\\envs\\onnx-runtime\\DLLs\\_decimal.pyd',
   'EXTENSION'),
  ('_multiprocessing.pyd',
   'C:\\Users\\hsoo\\miniconda3\\envs\\onnx-runtime\\DLLs\\_multiprocessing.pyd',
   'EXTENSION'),
  ('_socket.pyd',
   'C:\\Users\\hsoo\\miniconda3\\envs\\onnx-runtime\\DLLs\\_socket.pyd',
   'EXTENSION'),
  ('_ctypes.pyd',
   'C:\\Users\\hsoo\\miniconda3\\envs\\onnx-runtime\\DLLs\\_ctypes.pyd',
   'EXTENSION'),
  ('_queue.pyd',
   'C:\\Users\\hsoo\\miniconda3\\envs\\onnx-runtime\\DLLs\\_queue.pyd',
   'EXTENSION'),
  ('numpy\\core\\_multiarray_tests.cp311-win_amd64.pyd',
   'C:\\Users\\hsoo\\miniconda3\\envs\\onnx-runtime\\Lib\\site-packages\\numpy\\core\\_multiarray_tests.cp311-win_amd64.pyd',
   'EXTENSION'),
  ('numpy\\core\\_multiarray_umath.cp311-win_amd64.pyd',
   'C:\\Users\\hsoo\\miniconda3\\envs\\onnx-runtime\\Lib\\site-packages\\numpy\\core\\_multiarray_umath.cp311-win_amd64.pyd',
   'EXTENSION'),
  ('numpy\\linalg\\_umath_linalg.cp311-win_amd64.pyd',
   'C:\\Users\\hsoo\\miniconda3\\envs\\onnx-runtime\\Lib\\site-packages\\numpy\\linalg\\_umath_linalg.cp311-win_amd64.pyd',
   'EXTENSION'),
  ('_overlapped.pyd',
   'C:\\Users\\hsoo\\miniconda3\\envs\\onnx-runtime\\DLLs\\_overlapped.pyd',
   'EXTENSION'),
  ('_asyncio.pyd',
   'C:\\Users\\hsoo\\miniconda3\\envs\\onnx-runtime\\DLLs\\_asyncio.pyd',
   'EXTENSION'),
  ('numpy\\random\\mtrand.cp311-win_amd64.pyd',
   'C:\\Users\\hsoo\\miniconda3\\envs\\onnx-runtime\\Lib\\site-packages\\numpy\\random\\mtrand.cp311-win_amd64.pyd',
   'EXTENSION'),
  ('numpy\\random\\_sfc64.cp311-win_amd64.pyd',
   'C:\\Users\\hsoo\\miniconda3\\envs\\onnx-runtime\\Lib\\site-packages\\numpy\\random\\_sfc64.cp311-win_amd64.pyd',
   'EXTENSION'),
  ('numpy\\random\\_philox.cp311-win_amd64.pyd',
   'C:\\Users\\hsoo\\miniconda3\\envs\\onnx-runtime\\Lib\\site-packages\\numpy\\random\\_philox.cp311-win_amd64.pyd',
   'EXTENSION'),
  ('numpy\\random\\_pcg64.cp311-win_amd64.pyd',
   'C:\\Users\\hsoo\\miniconda3\\envs\\onnx-runtime\\Lib\\site-packages\\numpy\\random\\_pcg64.cp311-win_amd64.pyd',
   'EXTENSION'),
  ('numpy\\random\\_mt19937.cp311-win_amd64.pyd',
   'C:\\Users\\hsoo\\miniconda3\\envs\\onnx-runtime\\Lib\\site-packages\\numpy\\random\\_mt19937.cp311-win_amd64.pyd',
   'EXTENSION'),
  ('numpy\\random\\bit_generator.cp311-win_amd64.pyd',
   'C:\\Users\\hsoo\\miniconda3\\envs\\onnx-runtime\\Lib\\site-packages\\numpy\\random\\bit_generator.cp311-win_amd64.pyd',
   'EXTENSION'),
  ('numpy\\random\\_generator.cp311-win_amd64.pyd',
   'C:\\Users\\hsoo\\miniconda3\\envs\\onnx-runtime\\Lib\\site-packages\\numpy\\random\\_generator.cp311-win_amd64.pyd',
   'EXTENSION'),
  ('numpy\\random\\_bounded_integers.cp311-win_amd64.pyd',
   'C:\\Users\\hsoo\\miniconda3\\envs\\onnx-runtime\\Lib\\site-packages\\numpy\\random\\_bounded_integers.cp311-win_amd64.pyd',
   'EXTENSION'),
  ('numpy\\random\\_common.cp311-win_amd64.pyd',
   'C:\\Users\\hsoo\\miniconda3\\envs\\onnx-runtime\\Lib\\site-packages\\numpy\\random\\_common.cp311-win_amd64.pyd',
   'EXTENSION'),
  ('numpy\\fft\\_pocketfft_internal.cp311-win_amd64.pyd',
   'C:\\Users\\hsoo\\miniconda3\\envs\\onnx-runtime\\Lib\\site-packages\\numpy\\fft\\_pocketfft_internal.cp311-win_amd64.pyd',
   'EXTENSION'),
  ('onnxruntime\\capi\\onnxruntime_pybind11_state.pyd',
   'C:\\Users\\hsoo\\miniconda3\\envs\\onnx-runtime\\Lib\\site-packages\\onnxruntime\\capi\\onnxruntime_pybind11_state.pyd',
   'EXTENSION'),
  ('api-ms-win-crt-conio-l1-1-0.dll',
   'C:\\Users\\hsoo\\miniconda3\\envs\\onnx-runtime\\api-ms-win-crt-conio-l1-1-0.dll',
   'BINARY'),
  ('api-ms-win-crt-filesystem-l1-1-0.dll',
   'C:\\Users\\hsoo\\miniconda3\\envs\\onnx-runtime\\api-ms-win-crt-filesystem-l1-1-0.dll',
   'BINARY'),
  ('api-ms-win-crt-runtime-l1-1-0.dll',
   'C:\\Users\\hsoo\\miniconda3\\envs\\onnx-runtime\\api-ms-win-crt-runtime-l1-1-0.dll',
   'BINARY'),
  ('api-ms-win-crt-heap-l1-1-0.dll',
   'C:\\Users\\hsoo\\miniconda3\\envs\\onnx-runtime\\api-ms-win-crt-heap-l1-1-0.dll',
   'BINARY'),
  ('api-ms-win-crt-string-l1-1-0.dll',
   'C:\\Users\\hsoo\\miniconda3\\envs\\onnx-runtime\\api-ms-win-crt-string-l1-1-0.dll',
   'BINARY'),
  ('zlib.dll',
   'C:\\Users\\hsoo\\miniconda3\\envs\\onnx-runtime\\zlib.dll',
   'BINARY'),
  ('api-ms-win-crt-convert-l1-1-0.dll',
   'C:\\Users\\hsoo\\miniconda3\\envs\\onnx-runtime\\api-ms-win-crt-convert-l1-1-0.dll',
   'BINARY'),
  ('api-ms-win-crt-process-l1-1-0.dll',
   'C:\\Users\\hsoo\\miniconda3\\envs\\onnx-runtime\\api-ms-win-crt-process-l1-1-0.dll',
   'BINARY'),
  ('api-ms-win-crt-locale-l1-1-0.dll',
   'C:\\Users\\hsoo\\miniconda3\\envs\\onnx-runtime\\api-ms-win-crt-locale-l1-1-0.dll',
   'BINARY'),
  ('api-ms-win-crt-math-l1-1-0.dll',
   'C:\\Users\\hsoo\\miniconda3\\envs\\onnx-runtime\\api-ms-win-crt-math-l1-1-0.dll',
   'BINARY'),
  ('api-ms-win-crt-time-l1-1-0.dll',
   'C:\\Users\\hsoo\\miniconda3\\envs\\onnx-runtime\\api-ms-win-crt-time-l1-1-0.dll',
   'BINARY'),
  ('api-ms-win-crt-stdio-l1-1-0.dll',
   'C:\\Users\\hsoo\\miniconda3\\envs\\onnx-runtime\\api-ms-win-crt-stdio-l1-1-0.dll',
   'BINARY'),
  ('api-ms-win-crt-environment-l1-1-0.dll',
   'C:\\Users\\hsoo\\miniconda3\\envs\\onnx-runtime\\api-ms-win-crt-environment-l1-1-0.dll',
   'BINARY'),
  ('VCRUNTIME140.dll',
   'C:\\Users\\hsoo\\miniconda3\\envs\\onnx-runtime\\VCRUNTIME140.dll',
   'BINARY'),
  ('libcrypto-3-x64.dll',
   'C:\\Users\\hsoo\\miniconda3\\envs\\onnx-runtime\\Library\\bin\\libcrypto-3-x64.dll',
   'BINARY'),
  ('liblzma.dll',
   'C:\\Users\\hsoo\\miniconda3\\envs\\onnx-runtime\\Library\\bin\\liblzma.dll',
   'BINARY'),
  ('LIBBZ2.dll',
   'C:\\Users\\hsoo\\miniconda3\\envs\\onnx-runtime\\Library\\bin\\LIBBZ2.dll',
   'BINARY'),
  ('api-ms-win-crt-utility-l1-1-0.dll',
   'C:\\Users\\hsoo\\miniconda3\\envs\\onnx-runtime\\api-ms-win-crt-utility-l1-1-0.dll',
   'BINARY'),
  ('libssl-3-x64.dll',
   'C:\\Users\\hsoo\\miniconda3\\envs\\onnx-runtime\\Library\\bin\\libssl-3-x64.dll',
   'BINARY'),
  ('ffi.dll',
   'C:\\Users\\hsoo\\miniconda3\\envs\\onnx-runtime\\Library\\bin\\ffi.dll',
   'BINARY'),
  ('numpy.libs\\libopenblas64__v0.3.23-293-gc2f4bdbb-gcc_10_3_0-2bde3a66a51006b2b53eb373ff767a3f.dll',
   'C:\\Users\\hsoo\\miniconda3\\envs\\onnx-runtime\\Lib\\site-packages\\numpy.libs\\libopenblas64__v0.3.23-293-gc2f4bdbb-gcc_10_3_0-2bde3a66a51006b2b53eb373ff767a3f.dll',
   'BINARY'),
  ('VCRUNTIME140_1.dll',
   'C:\\Users\\hsoo\\miniconda3\\envs\\onnx-runtime\\VCRUNTIME140_1.dll',
   'BINARY'),
  ('MSVCP140.dll',
   'C:\\Users\\hsoo\\miniconda3\\envs\\onnx-runtime\\MSVCP140.dll',
   'BINARY'),
  ('ucrtbase.dll',
   'C:\\Users\\hsoo\\miniconda3\\envs\\onnx-runtime\\ucrtbase.dll',
   'BINARY'),
  ('api-ms-win-crt-private-l1-1-0.dll',
   'C:\\Users\\hsoo\\miniconda3\\envs\\onnx-runtime\\api-ms-win-crt-private-l1-1-0.dll',
   'BINARY'),
  ('api-ms-win-core-localization-l1-2-0.dll',
   'C:\\Users\\hsoo\\miniconda3\\envs\\onnx-runtime\\api-ms-win-core-localization-l1-2-0.dll',
   'BINARY'),
  ('api-ms-win-core-synch-l1-1-0.dll',
   'C:\\Users\\hsoo\\miniconda3\\envs\\onnx-runtime\\api-ms-win-core-synch-l1-1-0.dll',
   'BINARY'),
  ('api-ms-win-core-debug-l1-1-0.dll',
   'C:\\Users\\hsoo\\miniconda3\\envs\\onnx-runtime\\api-ms-win-core-debug-l1-1-0.dll',
   'BINARY'),
  ('api-ms-win-core-util-l1-1-0.dll',
   'C:\\Users\\hsoo\\miniconda3\\envs\\onnx-runtime\\api-ms-win-core-util-l1-1-0.dll',
   'BINARY'),
  ('api-ms-win-core-profile-l1-1-0.dll',
   'C:\\Users\\hsoo\\miniconda3\\envs\\onnx-runtime\\api-ms-win-core-profile-l1-1-0.dll',
   'BINARY'),
  ('api-ms-win-core-namedpipe-l1-1-0.dll',
   'C:\\Users\\hsoo\\miniconda3\\envs\\onnx-runtime\\api-ms-win-core-namedpipe-l1-1-0.dll',
   'BINARY'),
  ('api-ms-win-core-file-l2-1-0.dll',
   'C:\\Users\\hsoo\\miniconda3\\envs\\onnx-runtime\\api-ms-win-core-file-l2-1-0.dll',
   'BINARY'),
  ('api-ms-win-core-heap-l1-1-0.dll',
   'C:\\Users\\hsoo\\miniconda3\\envs\\onnx-runtime\\api-ms-win-core-heap-l1-1-0.dll',
   'BINARY'),
  ('api-ms-win-core-memory-l1-1-0.dll',
   'C:\\Users\\hsoo\\miniconda3\\envs\\onnx-runtime\\api-ms-win-core-memory-l1-1-0.dll',
   'BINARY'),
  ('api-ms-win-core-sysinfo-l1-1-0.dll',
   'C:\\Users\\hsoo\\miniconda3\\envs\\onnx-runtime\\api-ms-win-core-sysinfo-l1-1-0.dll',
   'BINARY'),
  ('api-ms-win-core-libraryloader-l1-1-0.dll',
   'C:\\Users\\hsoo\\miniconda3\\envs\\onnx-runtime\\api-ms-win-core-libraryloader-l1-1-0.dll',
   'BINARY'),
  ('api-ms-win-core-processthreads-l1-1-1.dll',
   'C:\\Users\\hsoo\\miniconda3\\envs\\onnx-runtime\\api-ms-win-core-processthreads-l1-1-1.dll',
   'BINARY'),
  ('api-ms-win-core-datetime-l1-1-0.dll',
   'C:\\Users\\hsoo\\miniconda3\\envs\\onnx-runtime\\api-ms-win-core-datetime-l1-1-0.dll',
   'BINARY'),
  ('api-ms-win-core-rtlsupport-l1-1-0.dll',
   'C:\\Users\\hsoo\\miniconda3\\envs\\onnx-runtime\\api-ms-win-core-rtlsupport-l1-1-0.dll',
   'BINARY'),
  ('api-ms-win-core-interlocked-l1-1-0.dll',
   'C:\\Users\\hsoo\\miniconda3\\envs\\onnx-runtime\\api-ms-win-core-interlocked-l1-1-0.dll',
   'BINARY'),
  ('api-ms-win-core-console-l1-1-0.dll',
   'C:\\Users\\hsoo\\miniconda3\\envs\\onnx-runtime\\api-ms-win-core-console-l1-1-0.dll',
   'BINARY'),
  ('api-ms-win-core-timezone-l1-1-0.dll',
   'C:\\Users\\hsoo\\miniconda3\\envs\\onnx-runtime\\api-ms-win-core-timezone-l1-1-0.dll',
   'BINARY'),
  ('api-ms-win-core-string-l1-1-0.dll',
   'C:\\Users\\hsoo\\miniconda3\\envs\\onnx-runtime\\api-ms-win-core-string-l1-1-0.dll',
   'BINARY'),
  ('api-ms-win-core-file-l1-2-0.dll',
   'C:\\Users\\hsoo\\miniconda3\\envs\\onnx-runtime\\api-ms-win-core-file-l1-2-0.dll',
   'BINARY'),
  ('api-ms-win-core-synch-l1-2-0.dll',
   'C:\\Users\\hsoo\\miniconda3\\envs\\onnx-runtime\\api-ms-win-core-synch-l1-2-0.dll',
   'BINARY'),
  ('api-ms-win-core-processthreads-l1-1-0.dll',
   'C:\\Users\\hsoo\\miniconda3\\envs\\onnx-runtime\\api-ms-win-core-processthreads-l1-1-0.dll',
   'BINARY'),
  ('api-ms-win-core-file-l1-1-0.dll',
   'C:\\Users\\hsoo\\miniconda3\\envs\\onnx-runtime\\api-ms-win-core-file-l1-1-0.dll',
   'BINARY'),
  ('api-ms-win-core-handle-l1-1-0.dll',
   'C:\\Users\\hsoo\\miniconda3\\envs\\onnx-runtime\\api-ms-win-core-handle-l1-1-0.dll',
   'BINARY'),
  ('api-ms-win-core-processenvironment-l1-1-0.dll',
   'C:\\Users\\hsoo\\miniconda3\\envs\\onnx-runtime\\api-ms-win-core-processenvironment-l1-1-0.dll',
   'BINARY'),
  ('api-ms-win-core-errorhandling-l1-1-0.dll',
   'C:\\Users\\hsoo\\miniconda3\\envs\\onnx-runtime\\api-ms-win-core-errorhandling-l1-1-0.dll',
   'BINARY'),
  ('base_library.zip',
   'C:\\Users\\hsoo\\workspace\\ml-study\\test\\build\\predic_onnx\\base_library.zip',
   'DATA')],
 'python311.dll',
 False,
 False,
 False,
 [],
 None,
 None,
 None)
