('C:\\Users\\hsoo\\workspace\\ml-study\\test\\build\\predic_onnx\\PYZ-00.pyz',
 [('__future__',
   'C:\\Users\\hsoo\\miniconda3\\envs\\onnx-runtime\\Lib\\__future__.py',
   'PYMODULE'),
  ('_aix_support',
   'C:\\Users\\hsoo\\miniconda3\\envs\\onnx-runtime\\Lib\\_aix_support.py',
   'PYMODULE'),
  ('_bootsubprocess',
   'C:\\Users\\hsoo\\miniconda3\\envs\\onnx-runtime\\Lib\\_bootsubprocess.py',
   'PYMODULE'),
  ('_compat_pickle',
   'C:\\Users\\hsoo\\miniconda3\\envs\\onnx-runtime\\Lib\\_compat_pickle.py',
   'PYMODULE'),
  ('_compression',
   'C:\\Users\\hsoo\\miniconda3\\envs\\onnx-runtime\\Lib\\_compression.py',
   'PYMODULE'),
  ('_py_abc',
   'C:\\Users\\hsoo\\miniconda3\\envs\\onnx-runtime\\Lib\\_py_abc.py',
   'PYMODULE'),
  ('_pydecimal',
   'C:\\Users\\hsoo\\miniconda3\\envs\\onnx-runtime\\Lib\\_pydecimal.py',
   'PYMODULE'),
  ('_pyi_rth_utils',
   'C:\\Users\\hsoo\\miniconda3\\envs\\onnx-runtime\\Lib\\site-packages\\PyInstaller\\fake-modules\\_pyi_rth_utils\\__init__.py',
   'PYMODULE'),
  ('_strptime',
   'C:\\Users\\hsoo\\miniconda3\\envs\\onnx-runtime\\Lib\\_strptime.py',
   'PYMODULE'),
  ('_threading_local',
   'C:\\Users\\hsoo\\miniconda3\\envs\\onnx-runtime\\Lib\\_threading_local.py',
   'PYMODULE'),
  ('argparse',
   'C:\\Users\\hsoo\\miniconda3\\envs\\onnx-runtime\\Lib\\argparse.py',
   'PYMODULE'),
  ('ast',
   'C:\\Users\\hsoo\\miniconda3\\envs\\onnx-runtime\\Lib\\ast.py',
   'PYMODULE'),
  ('asyncio',
   'C:\\Users\\hsoo\\miniconda3\\envs\\onnx-runtime\\Lib\\asyncio\\__init__.py',
   'PYMODULE'),
  ('asyncio.base_events',
   'C:\\Users\\hsoo\\miniconda3\\envs\\onnx-runtime\\Lib\\asyncio\\base_events.py',
   'PYMODULE'),
  ('asyncio.base_futures',
   'C:\\Users\\hsoo\\miniconda3\\envs\\onnx-runtime\\Lib\\asyncio\\base_futures.py',
   'PYMODULE'),
  ('asyncio.base_subprocess',
   'C:\\Users\\hsoo\\miniconda3\\envs\\onnx-runtime\\Lib\\asyncio\\base_subprocess.py',
   'PYMODULE'),
  ('asyncio.base_tasks',
   'C:\\Users\\hsoo\\miniconda3\\envs\\onnx-runtime\\Lib\\asyncio\\base_tasks.py',
   'PYMODULE'),
  ('asyncio.constants',
   'C:\\Users\\hsoo\\miniconda3\\envs\\onnx-runtime\\Lib\\asyncio\\constants.py',
   'PYMODULE'),
  ('asyncio.coroutines',
   'C:\\Users\\hsoo\\miniconda3\\envs\\onnx-runtime\\Lib\\asyncio\\coroutines.py',
   'PYMODULE'),
  ('asyncio.events',
   'C:\\Users\\hsoo\\miniconda3\\envs\\onnx-runtime\\Lib\\asyncio\\events.py',
   'PYMODULE'),
  ('asyncio.exceptions',
   'C:\\Users\\hsoo\\miniconda3\\envs\\onnx-runtime\\Lib\\asyncio\\exceptions.py',
   'PYMODULE'),
  ('asyncio.format_helpers',
   'C:\\Users\\hsoo\\miniconda3\\envs\\onnx-runtime\\Lib\\asyncio\\format_helpers.py',
   'PYMODULE'),
  ('asyncio.futures',
   'C:\\Users\\hsoo\\miniconda3\\envs\\onnx-runtime\\Lib\\asyncio\\futures.py',
   'PYMODULE'),
  ('asyncio.locks',
   'C:\\Users\\hsoo\\miniconda3\\envs\\onnx-runtime\\Lib\\asyncio\\locks.py',
   'PYMODULE'),
  ('asyncio.log',
   'C:\\Users\\hsoo\\miniconda3\\envs\\onnx-runtime\\Lib\\asyncio\\log.py',
   'PYMODULE'),
  ('asyncio.mixins',
   'C:\\Users\\hsoo\\miniconda3\\envs\\onnx-runtime\\Lib\\asyncio\\mixins.py',
   'PYMODULE'),
  ('asyncio.proactor_events',
   'C:\\Users\\hsoo\\miniconda3\\envs\\onnx-runtime\\Lib\\asyncio\\proactor_events.py',
   'PYMODULE'),
  ('asyncio.protocols',
   'C:\\Users\\hsoo\\miniconda3\\envs\\onnx-runtime\\Lib\\asyncio\\protocols.py',
   'PYMODULE'),
  ('asyncio.queues',
   'C:\\Users\\hsoo\\miniconda3\\envs\\onnx-runtime\\Lib\\asyncio\\queues.py',
   'PYMODULE'),
  ('asyncio.runners',
   'C:\\Users\\hsoo\\miniconda3\\envs\\onnx-runtime\\Lib\\asyncio\\runners.py',
   'PYMODULE'),
  ('asyncio.selector_events',
   'C:\\Users\\hsoo\\miniconda3\\envs\\onnx-runtime\\Lib\\asyncio\\selector_events.py',
   'PYMODULE'),
  ('asyncio.sslproto',
   'C:\\Users\\hsoo\\miniconda3\\envs\\onnx-runtime\\Lib\\asyncio\\sslproto.py',
   'PYMODULE'),
  ('asyncio.staggered',
   'C:\\Users\\hsoo\\miniconda3\\envs\\onnx-runtime\\Lib\\asyncio\\staggered.py',
   'PYMODULE'),
  ('asyncio.streams',
   'C:\\Users\\hsoo\\miniconda3\\envs\\onnx-runtime\\Lib\\asyncio\\streams.py',
   'PYMODULE'),
  ('asyncio.subprocess',
   'C:\\Users\\hsoo\\miniconda3\\envs\\onnx-runtime\\Lib\\asyncio\\subprocess.py',
   'PYMODULE'),
  ('asyncio.taskgroups',
   'C:\\Users\\hsoo\\miniconda3\\envs\\onnx-runtime\\Lib\\asyncio\\taskgroups.py',
   'PYMODULE'),
  ('asyncio.tasks',
   'C:\\Users\\hsoo\\miniconda3\\envs\\onnx-runtime\\Lib\\asyncio\\tasks.py',
   'PYMODULE'),
  ('asyncio.threads',
   'C:\\Users\\hsoo\\miniconda3\\envs\\onnx-runtime\\Lib\\asyncio\\threads.py',
   'PYMODULE'),
  ('asyncio.timeouts',
   'C:\\Users\\hsoo\\miniconda3\\envs\\onnx-runtime\\Lib\\asyncio\\timeouts.py',
   'PYMODULE'),
  ('asyncio.transports',
   'C:\\Users\\hsoo\\miniconda3\\envs\\onnx-runtime\\Lib\\asyncio\\transports.py',
   'PYMODULE'),
  ('asyncio.trsock',
   'C:\\Users\\hsoo\\miniconda3\\envs\\onnx-runtime\\Lib\\asyncio\\trsock.py',
   'PYMODULE'),
  ('asyncio.unix_events',
   'C:\\Users\\hsoo\\miniconda3\\envs\\onnx-runtime\\Lib\\asyncio\\unix_events.py',
   'PYMODULE'),
  ('asyncio.windows_events',
   'C:\\Users\\hsoo\\miniconda3\\envs\\onnx-runtime\\Lib\\asyncio\\windows_events.py',
   'PYMODULE'),
  ('asyncio.windows_utils',
   'C:\\Users\\hsoo\\miniconda3\\envs\\onnx-runtime\\Lib\\asyncio\\windows_utils.py',
   'PYMODULE'),
  ('base64',
   'C:\\Users\\hsoo\\miniconda3\\envs\\onnx-runtime\\Lib\\base64.py',
   'PYMODULE'),
  ('bdb',
   'C:\\Users\\hsoo\\miniconda3\\envs\\onnx-runtime\\Lib\\bdb.py',
   'PYMODULE'),
  ('bisect',
   'C:\\Users\\hsoo\\miniconda3\\envs\\onnx-runtime\\Lib\\bisect.py',
   'PYMODULE'),
  ('bz2',
   'C:\\Users\\hsoo\\miniconda3\\envs\\onnx-runtime\\Lib\\bz2.py',
   'PYMODULE'),
  ('calendar',
   'C:\\Users\\hsoo\\miniconda3\\envs\\onnx-runtime\\Lib\\calendar.py',
   'PYMODULE'),
  ('cmd',
   'C:\\Users\\hsoo\\miniconda3\\envs\\onnx-runtime\\Lib\\cmd.py',
   'PYMODULE'),
  ('code',
   'C:\\Users\\hsoo\\miniconda3\\envs\\onnx-runtime\\Lib\\code.py',
   'PYMODULE'),
  ('codeop',
   'C:\\Users\\hsoo\\miniconda3\\envs\\onnx-runtime\\Lib\\codeop.py',
   'PYMODULE'),
  ('concurrent',
   'C:\\Users\\hsoo\\miniconda3\\envs\\onnx-runtime\\Lib\\concurrent\\__init__.py',
   'PYMODULE'),
  ('concurrent.futures',
   'C:\\Users\\hsoo\\miniconda3\\envs\\onnx-runtime\\Lib\\concurrent\\futures\\__init__.py',
   'PYMODULE'),
  ('concurrent.futures._base',
   'C:\\Users\\hsoo\\miniconda3\\envs\\onnx-runtime\\Lib\\concurrent\\futures\\_base.py',
   'PYMODULE'),
  ('concurrent.futures.process',
   'C:\\Users\\hsoo\\miniconda3\\envs\\onnx-runtime\\Lib\\concurrent\\futures\\process.py',
   'PYMODULE'),
  ('concurrent.futures.thread',
   'C:\\Users\\hsoo\\miniconda3\\envs\\onnx-runtime\\Lib\\concurrent\\futures\\thread.py',
   'PYMODULE'),
  ('contextlib',
   'C:\\Users\\hsoo\\miniconda3\\envs\\onnx-runtime\\Lib\\contextlib.py',
   'PYMODULE'),
  ('contextvars',
   'C:\\Users\\hsoo\\miniconda3\\envs\\onnx-runtime\\Lib\\contextvars.py',
   'PYMODULE'),
  ('copy',
   'C:\\Users\\hsoo\\miniconda3\\envs\\onnx-runtime\\Lib\\copy.py',
   'PYMODULE'),
  ('csv',
   'C:\\Users\\hsoo\\miniconda3\\envs\\onnx-runtime\\Lib\\csv.py',
   'PYMODULE'),
  ('ctypes',
   'C:\\Users\\hsoo\\miniconda3\\envs\\onnx-runtime\\Lib\\ctypes\\__init__.py',
   'PYMODULE'),
  ('ctypes._aix',
   'C:\\Users\\hsoo\\miniconda3\\envs\\onnx-runtime\\Lib\\ctypes\\_aix.py',
   'PYMODULE'),
  ('ctypes._endian',
   'C:\\Users\\hsoo\\miniconda3\\envs\\onnx-runtime\\Lib\\ctypes\\_endian.py',
   'PYMODULE'),
  ('ctypes.macholib',
   'C:\\Users\\hsoo\\miniconda3\\envs\\onnx-runtime\\Lib\\ctypes\\macholib\\__init__.py',
   'PYMODULE'),
  ('ctypes.macholib.dyld',
   'C:\\Users\\hsoo\\miniconda3\\envs\\onnx-runtime\\Lib\\ctypes\\macholib\\dyld.py',
   'PYMODULE'),
  ('ctypes.macholib.dylib',
   'C:\\Users\\hsoo\\miniconda3\\envs\\onnx-runtime\\Lib\\ctypes\\macholib\\dylib.py',
   'PYMODULE'),
  ('ctypes.macholib.framework',
   'C:\\Users\\hsoo\\miniconda3\\envs\\onnx-runtime\\Lib\\ctypes\\macholib\\framework.py',
   'PYMODULE'),
  ('ctypes.util',
   'C:\\Users\\hsoo\\miniconda3\\envs\\onnx-runtime\\Lib\\ctypes\\util.py',
   'PYMODULE'),
  ('ctypes.wintypes',
   'C:\\Users\\hsoo\\miniconda3\\envs\\onnx-runtime\\Lib\\ctypes\\wintypes.py',
   'PYMODULE'),
  ('dataclasses',
   'C:\\Users\\hsoo\\miniconda3\\envs\\onnx-runtime\\Lib\\dataclasses.py',
   'PYMODULE'),
  ('datetime',
   'C:\\Users\\hsoo\\miniconda3\\envs\\onnx-runtime\\Lib\\datetime.py',
   'PYMODULE'),
  ('decimal',
   'C:\\Users\\hsoo\\miniconda3\\envs\\onnx-runtime\\Lib\\decimal.py',
   'PYMODULE'),
  ('difflib',
   'C:\\Users\\hsoo\\miniconda3\\envs\\onnx-runtime\\Lib\\difflib.py',
   'PYMODULE'),
  ('dis',
   'C:\\Users\\hsoo\\miniconda3\\envs\\onnx-runtime\\Lib\\dis.py',
   'PYMODULE'),
  ('doctest',
   'C:\\Users\\hsoo\\miniconda3\\envs\\onnx-runtime\\Lib\\doctest.py',
   'PYMODULE'),
  ('email',
   'C:\\Users\\hsoo\\miniconda3\\envs\\onnx-runtime\\Lib\\email\\__init__.py',
   'PYMODULE'),
  ('email._encoded_words',
   'C:\\Users\\hsoo\\miniconda3\\envs\\onnx-runtime\\Lib\\email\\_encoded_words.py',
   'PYMODULE'),
  ('email._header_value_parser',
   'C:\\Users\\hsoo\\miniconda3\\envs\\onnx-runtime\\Lib\\email\\_header_value_parser.py',
   'PYMODULE'),
  ('email._parseaddr',
   'C:\\Users\\hsoo\\miniconda3\\envs\\onnx-runtime\\Lib\\email\\_parseaddr.py',
   'PYMODULE'),
  ('email._policybase',
   'C:\\Users\\hsoo\\miniconda3\\envs\\onnx-runtime\\Lib\\email\\_policybase.py',
   'PYMODULE'),
  ('email.base64mime',
   'C:\\Users\\hsoo\\miniconda3\\envs\\onnx-runtime\\Lib\\email\\base64mime.py',
   'PYMODULE'),
  ('email.charset',
   'C:\\Users\\hsoo\\miniconda3\\envs\\onnx-runtime\\Lib\\email\\charset.py',
   'PYMODULE'),
  ('email.contentmanager',
   'C:\\Users\\hsoo\\miniconda3\\envs\\onnx-runtime\\Lib\\email\\contentmanager.py',
   'PYMODULE'),
  ('email.encoders',
   'C:\\Users\\hsoo\\miniconda3\\envs\\onnx-runtime\\Lib\\email\\encoders.py',
   'PYMODULE'),
  ('email.errors',
   'C:\\Users\\hsoo\\miniconda3\\envs\\onnx-runtime\\Lib\\email\\errors.py',
   'PYMODULE'),
  ('email.feedparser',
   'C:\\Users\\hsoo\\miniconda3\\envs\\onnx-runtime\\Lib\\email\\feedparser.py',
   'PYMODULE'),
  ('email.generator',
   'C:\\Users\\hsoo\\miniconda3\\envs\\onnx-runtime\\Lib\\email\\generator.py',
   'PYMODULE'),
  ('email.header',
   'C:\\Users\\hsoo\\miniconda3\\envs\\onnx-runtime\\Lib\\email\\header.py',
   'PYMODULE'),
  ('email.headerregistry',
   'C:\\Users\\hsoo\\miniconda3\\envs\\onnx-runtime\\Lib\\email\\headerregistry.py',
   'PYMODULE'),
  ('email.iterators',
   'C:\\Users\\hsoo\\miniconda3\\envs\\onnx-runtime\\Lib\\email\\iterators.py',
   'PYMODULE'),
  ('email.message',
   'C:\\Users\\hsoo\\miniconda3\\envs\\onnx-runtime\\Lib\\email\\message.py',
   'PYMODULE'),
  ('email.parser',
   'C:\\Users\\hsoo\\miniconda3\\envs\\onnx-runtime\\Lib\\email\\parser.py',
   'PYMODULE'),
  ('email.policy',
   'C:\\Users\\hsoo\\miniconda3\\envs\\onnx-runtime\\Lib\\email\\policy.py',
   'PYMODULE'),
  ('email.quoprimime',
   'C:\\Users\\hsoo\\miniconda3\\envs\\onnx-runtime\\Lib\\email\\quoprimime.py',
   'PYMODULE'),
  ('email.utils',
   'C:\\Users\\hsoo\\miniconda3\\envs\\onnx-runtime\\Lib\\email\\utils.py',
   'PYMODULE'),
  ('fnmatch',
   'C:\\Users\\hsoo\\miniconda3\\envs\\onnx-runtime\\Lib\\fnmatch.py',
   'PYMODULE'),
  ('fractions',
   'C:\\Users\\hsoo\\miniconda3\\envs\\onnx-runtime\\Lib\\fractions.py',
   'PYMODULE'),
  ('ftplib',
   'C:\\Users\\hsoo\\miniconda3\\envs\\onnx-runtime\\Lib\\ftplib.py',
   'PYMODULE'),
  ('getopt',
   'C:\\Users\\hsoo\\miniconda3\\envs\\onnx-runtime\\Lib\\getopt.py',
   'PYMODULE'),
  ('getpass',
   'C:\\Users\\hsoo\\miniconda3\\envs\\onnx-runtime\\Lib\\getpass.py',
   'PYMODULE'),
  ('gettext',
   'C:\\Users\\hsoo\\miniconda3\\envs\\onnx-runtime\\Lib\\gettext.py',
   'PYMODULE'),
  ('glob',
   'C:\\Users\\hsoo\\miniconda3\\envs\\onnx-runtime\\Lib\\glob.py',
   'PYMODULE'),
  ('gzip',
   'C:\\Users\\hsoo\\miniconda3\\envs\\onnx-runtime\\Lib\\gzip.py',
   'PYMODULE'),
  ('hashlib',
   'C:\\Users\\hsoo\\miniconda3\\envs\\onnx-runtime\\Lib\\hashlib.py',
   'PYMODULE'),
  ('hmac',
   'C:\\Users\\hsoo\\miniconda3\\envs\\onnx-runtime\\Lib\\hmac.py',
   'PYMODULE'),
  ('html',
   'C:\\Users\\hsoo\\miniconda3\\envs\\onnx-runtime\\Lib\\html\\__init__.py',
   'PYMODULE'),
  ('html.entities',
   'C:\\Users\\hsoo\\miniconda3\\envs\\onnx-runtime\\Lib\\html\\entities.py',
   'PYMODULE'),
  ('http',
   'C:\\Users\\hsoo\\miniconda3\\envs\\onnx-runtime\\Lib\\http\\__init__.py',
   'PYMODULE'),
  ('http.client',
   'C:\\Users\\hsoo\\miniconda3\\envs\\onnx-runtime\\Lib\\http\\client.py',
   'PYMODULE'),
  ('http.cookiejar',
   'C:\\Users\\hsoo\\miniconda3\\envs\\onnx-runtime\\Lib\\http\\cookiejar.py',
   'PYMODULE'),
  ('http.server',
   'C:\\Users\\hsoo\\miniconda3\\envs\\onnx-runtime\\Lib\\http\\server.py',
   'PYMODULE'),
  ('importlib',
   'C:\\Users\\hsoo\\miniconda3\\envs\\onnx-runtime\\Lib\\importlib\\__init__.py',
   'PYMODULE'),
  ('importlib._abc',
   'C:\\Users\\hsoo\\miniconda3\\envs\\onnx-runtime\\Lib\\importlib\\_abc.py',
   'PYMODULE'),
  ('importlib._bootstrap',
   'C:\\Users\\hsoo\\miniconda3\\envs\\onnx-runtime\\Lib\\importlib\\_bootstrap.py',
   'PYMODULE'),
  ('importlib._bootstrap_external',
   'C:\\Users\\hsoo\\miniconda3\\envs\\onnx-runtime\\Lib\\importlib\\_bootstrap_external.py',
   'PYMODULE'),
  ('importlib.abc',
   'C:\\Users\\hsoo\\miniconda3\\envs\\onnx-runtime\\Lib\\importlib\\abc.py',
   'PYMODULE'),
  ('importlib.machinery',
   'C:\\Users\\hsoo\\miniconda3\\envs\\onnx-runtime\\Lib\\importlib\\machinery.py',
   'PYMODULE'),
  ('importlib.metadata',
   'C:\\Users\\hsoo\\miniconda3\\envs\\onnx-runtime\\Lib\\importlib\\metadata\\__init__.py',
   'PYMODULE'),
  ('importlib.metadata._adapters',
   'C:\\Users\\hsoo\\miniconda3\\envs\\onnx-runtime\\Lib\\importlib\\metadata\\_adapters.py',
   'PYMODULE'),
  ('importlib.metadata._collections',
   'C:\\Users\\hsoo\\miniconda3\\envs\\onnx-runtime\\Lib\\importlib\\metadata\\_collections.py',
   'PYMODULE'),
  ('importlib.metadata._functools',
   'C:\\Users\\hsoo\\miniconda3\\envs\\onnx-runtime\\Lib\\importlib\\metadata\\_functools.py',
   'PYMODULE'),
  ('importlib.metadata._itertools',
   'C:\\Users\\hsoo\\miniconda3\\envs\\onnx-runtime\\Lib\\importlib\\metadata\\_itertools.py',
   'PYMODULE'),
  ('importlib.metadata._meta',
   'C:\\Users\\hsoo\\miniconda3\\envs\\onnx-runtime\\Lib\\importlib\\metadata\\_meta.py',
   'PYMODULE'),
  ('importlib.metadata._text',
   'C:\\Users\\hsoo\\miniconda3\\envs\\onnx-runtime\\Lib\\importlib\\metadata\\_text.py',
   'PYMODULE'),
  ('importlib.readers',
   'C:\\Users\\hsoo\\miniconda3\\envs\\onnx-runtime\\Lib\\importlib\\readers.py',
   'PYMODULE'),
  ('importlib.resources',
   'C:\\Users\\hsoo\\miniconda3\\envs\\onnx-runtime\\Lib\\importlib\\resources\\__init__.py',
   'PYMODULE'),
  ('importlib.resources._adapters',
   'C:\\Users\\hsoo\\miniconda3\\envs\\onnx-runtime\\Lib\\importlib\\resources\\_adapters.py',
   'PYMODULE'),
  ('importlib.resources._common',
   'C:\\Users\\hsoo\\miniconda3\\envs\\onnx-runtime\\Lib\\importlib\\resources\\_common.py',
   'PYMODULE'),
  ('importlib.resources._itertools',
   'C:\\Users\\hsoo\\miniconda3\\envs\\onnx-runtime\\Lib\\importlib\\resources\\_itertools.py',
   'PYMODULE'),
  ('importlib.resources._legacy',
   'C:\\Users\\hsoo\\miniconda3\\envs\\onnx-runtime\\Lib\\importlib\\resources\\_legacy.py',
   'PYMODULE'),
  ('importlib.resources.abc',
   'C:\\Users\\hsoo\\miniconda3\\envs\\onnx-runtime\\Lib\\importlib\\resources\\abc.py',
   'PYMODULE'),
  ('importlib.resources.readers',
   'C:\\Users\\hsoo\\miniconda3\\envs\\onnx-runtime\\Lib\\importlib\\resources\\readers.py',
   'PYMODULE'),
  ('importlib.util',
   'C:\\Users\\hsoo\\miniconda3\\envs\\onnx-runtime\\Lib\\importlib\\util.py',
   'PYMODULE'),
  ('inspect',
   'C:\\Users\\hsoo\\miniconda3\\envs\\onnx-runtime\\Lib\\inspect.py',
   'PYMODULE'),
  ('ipaddress',
   'C:\\Users\\hsoo\\miniconda3\\envs\\onnx-runtime\\Lib\\ipaddress.py',
   'PYMODULE'),
  ('json',
   'C:\\Users\\hsoo\\miniconda3\\envs\\onnx-runtime\\Lib\\json\\__init__.py',
   'PYMODULE'),
  ('json.decoder',
   'C:\\Users\\hsoo\\miniconda3\\envs\\onnx-runtime\\Lib\\json\\decoder.py',
   'PYMODULE'),
  ('json.encoder',
   'C:\\Users\\hsoo\\miniconda3\\envs\\onnx-runtime\\Lib\\json\\encoder.py',
   'PYMODULE'),
  ('json.scanner',
   'C:\\Users\\hsoo\\miniconda3\\envs\\onnx-runtime\\Lib\\json\\scanner.py',
   'PYMODULE'),
  ('logging',
   'C:\\Users\\hsoo\\miniconda3\\envs\\onnx-runtime\\Lib\\logging\\__init__.py',
   'PYMODULE'),
  ('logging.handlers',
   'C:\\Users\\hsoo\\miniconda3\\envs\\onnx-runtime\\Lib\\logging\\handlers.py',
   'PYMODULE'),
  ('lzma',
   'C:\\Users\\hsoo\\miniconda3\\envs\\onnx-runtime\\Lib\\lzma.py',
   'PYMODULE'),
  ('mimetypes',
   'C:\\Users\\hsoo\\miniconda3\\envs\\onnx-runtime\\Lib\\mimetypes.py',
   'PYMODULE'),
  ('multiprocessing',
   'C:\\Users\\hsoo\\miniconda3\\envs\\onnx-runtime\\Lib\\multiprocessing\\__init__.py',
   'PYMODULE'),
  ('multiprocessing.connection',
   'C:\\Users\\hsoo\\miniconda3\\envs\\onnx-runtime\\Lib\\multiprocessing\\connection.py',
   'PYMODULE'),
  ('multiprocessing.context',
   'C:\\Users\\hsoo\\miniconda3\\envs\\onnx-runtime\\Lib\\multiprocessing\\context.py',
   'PYMODULE'),
  ('multiprocessing.dummy',
   'C:\\Users\\hsoo\\miniconda3\\envs\\onnx-runtime\\Lib\\multiprocessing\\dummy\\__init__.py',
   'PYMODULE'),
  ('multiprocessing.dummy.connection',
   'C:\\Users\\hsoo\\miniconda3\\envs\\onnx-runtime\\Lib\\multiprocessing\\dummy\\connection.py',
   'PYMODULE'),
  ('multiprocessing.forkserver',
   'C:\\Users\\hsoo\\miniconda3\\envs\\onnx-runtime\\Lib\\multiprocessing\\forkserver.py',
   'PYMODULE'),
  ('multiprocessing.heap',
   'C:\\Users\\hsoo\\miniconda3\\envs\\onnx-runtime\\Lib\\multiprocessing\\heap.py',
   'PYMODULE'),
  ('multiprocessing.managers',
   'C:\\Users\\hsoo\\miniconda3\\envs\\onnx-runtime\\Lib\\multiprocessing\\managers.py',
   'PYMODULE'),
  ('multiprocessing.pool',
   'C:\\Users\\hsoo\\miniconda3\\envs\\onnx-runtime\\Lib\\multiprocessing\\pool.py',
   'PYMODULE'),
  ('multiprocessing.popen_fork',
   'C:\\Users\\hsoo\\miniconda3\\envs\\onnx-runtime\\Lib\\multiprocessing\\popen_fork.py',
   'PYMODULE'),
  ('multiprocessing.popen_forkserver',
   'C:\\Users\\hsoo\\miniconda3\\envs\\onnx-runtime\\Lib\\multiprocessing\\popen_forkserver.py',
   'PYMODULE'),
  ('multiprocessing.popen_spawn_posix',
   'C:\\Users\\hsoo\\miniconda3\\envs\\onnx-runtime\\Lib\\multiprocessing\\popen_spawn_posix.py',
   'PYMODULE'),
  ('multiprocessing.popen_spawn_win32',
   'C:\\Users\\hsoo\\miniconda3\\envs\\onnx-runtime\\Lib\\multiprocessing\\popen_spawn_win32.py',
   'PYMODULE'),
  ('multiprocessing.process',
   'C:\\Users\\hsoo\\miniconda3\\envs\\onnx-runtime\\Lib\\multiprocessing\\process.py',
   'PYMODULE'),
  ('multiprocessing.queues',
   'C:\\Users\\hsoo\\miniconda3\\envs\\onnx-runtime\\Lib\\multiprocessing\\queues.py',
   'PYMODULE'),
  ('multiprocessing.reduction',
   'C:\\Users\\hsoo\\miniconda3\\envs\\onnx-runtime\\Lib\\multiprocessing\\reduction.py',
   'PYMODULE'),
  ('multiprocessing.resource_sharer',
   'C:\\Users\\hsoo\\miniconda3\\envs\\onnx-runtime\\Lib\\multiprocessing\\resource_sharer.py',
   'PYMODULE'),
  ('multiprocessing.resource_tracker',
   'C:\\Users\\hsoo\\miniconda3\\envs\\onnx-runtime\\Lib\\multiprocessing\\resource_tracker.py',
   'PYMODULE'),
  ('multiprocessing.shared_memory',
   'C:\\Users\\hsoo\\miniconda3\\envs\\onnx-runtime\\Lib\\multiprocessing\\shared_memory.py',
   'PYMODULE'),
  ('multiprocessing.sharedctypes',
   'C:\\Users\\hsoo\\miniconda3\\envs\\onnx-runtime\\Lib\\multiprocessing\\sharedctypes.py',
   'PYMODULE'),
  ('multiprocessing.spawn',
   'C:\\Users\\hsoo\\miniconda3\\envs\\onnx-runtime\\Lib\\multiprocessing\\spawn.py',
   'PYMODULE'),
  ('multiprocessing.synchronize',
   'C:\\Users\\hsoo\\miniconda3\\envs\\onnx-runtime\\Lib\\multiprocessing\\synchronize.py',
   'PYMODULE'),
  ('multiprocessing.util',
   'C:\\Users\\hsoo\\miniconda3\\envs\\onnx-runtime\\Lib\\multiprocessing\\util.py',
   'PYMODULE'),
  ('netrc',
   'C:\\Users\\hsoo\\miniconda3\\envs\\onnx-runtime\\Lib\\netrc.py',
   'PYMODULE'),
  ('nturl2path',
   'C:\\Users\\hsoo\\miniconda3\\envs\\onnx-runtime\\Lib\\nturl2path.py',
   'PYMODULE'),
  ('numbers',
   'C:\\Users\\hsoo\\miniconda3\\envs\\onnx-runtime\\Lib\\numbers.py',
   'PYMODULE'),
  ('numpy',
   'C:\\Users\\hsoo\\miniconda3\\envs\\onnx-runtime\\Lib\\site-packages\\numpy\\__init__.py',
   'PYMODULE'),
  ('numpy.__config__',
   'C:\\Users\\hsoo\\miniconda3\\envs\\onnx-runtime\\Lib\\site-packages\\numpy\\__config__.py',
   'PYMODULE'),
  ('numpy._distributor_init',
   'C:\\Users\\hsoo\\miniconda3\\envs\\onnx-runtime\\Lib\\site-packages\\numpy\\_distributor_init.py',
   'PYMODULE'),
  ('numpy._globals',
   'C:\\Users\\hsoo\\miniconda3\\envs\\onnx-runtime\\Lib\\site-packages\\numpy\\_globals.py',
   'PYMODULE'),
  ('numpy._pytesttester',
   'C:\\Users\\hsoo\\miniconda3\\envs\\onnx-runtime\\Lib\\site-packages\\numpy\\_pytesttester.py',
   'PYMODULE'),
  ('numpy._typing',
   'C:\\Users\\hsoo\\miniconda3\\envs\\onnx-runtime\\Lib\\site-packages\\numpy\\_typing\\__init__.py',
   'PYMODULE'),
  ('numpy._typing._add_docstring',
   'C:\\Users\\hsoo\\miniconda3\\envs\\onnx-runtime\\Lib\\site-packages\\numpy\\_typing\\_add_docstring.py',
   'PYMODULE'),
  ('numpy._typing._array_like',
   'C:\\Users\\hsoo\\miniconda3\\envs\\onnx-runtime\\Lib\\site-packages\\numpy\\_typing\\_array_like.py',
   'PYMODULE'),
  ('numpy._typing._char_codes',
   'C:\\Users\\hsoo\\miniconda3\\envs\\onnx-runtime\\Lib\\site-packages\\numpy\\_typing\\_char_codes.py',
   'PYMODULE'),
  ('numpy._typing._dtype_like',
   'C:\\Users\\hsoo\\miniconda3\\envs\\onnx-runtime\\Lib\\site-packages\\numpy\\_typing\\_dtype_like.py',
   'PYMODULE'),
  ('numpy._typing._nbit',
   'C:\\Users\\hsoo\\miniconda3\\envs\\onnx-runtime\\Lib\\site-packages\\numpy\\_typing\\_nbit.py',
   'PYMODULE'),
  ('numpy._typing._nested_sequence',
   'C:\\Users\\hsoo\\miniconda3\\envs\\onnx-runtime\\Lib\\site-packages\\numpy\\_typing\\_nested_sequence.py',
   'PYMODULE'),
  ('numpy._typing._scalars',
   'C:\\Users\\hsoo\\miniconda3\\envs\\onnx-runtime\\Lib\\site-packages\\numpy\\_typing\\_scalars.py',
   'PYMODULE'),
  ('numpy._typing._shape',
   'C:\\Users\\hsoo\\miniconda3\\envs\\onnx-runtime\\Lib\\site-packages\\numpy\\_typing\\_shape.py',
   'PYMODULE'),
  ('numpy._utils',
   'C:\\Users\\hsoo\\miniconda3\\envs\\onnx-runtime\\Lib\\site-packages\\numpy\\_utils\\__init__.py',
   'PYMODULE'),
  ('numpy._utils._convertions',
   'C:\\Users\\hsoo\\miniconda3\\envs\\onnx-runtime\\Lib\\site-packages\\numpy\\_utils\\_convertions.py',
   'PYMODULE'),
  ('numpy._utils._inspect',
   'C:\\Users\\hsoo\\miniconda3\\envs\\onnx-runtime\\Lib\\site-packages\\numpy\\_utils\\_inspect.py',
   'PYMODULE'),
  ('numpy.array_api',
   'C:\\Users\\hsoo\\miniconda3\\envs\\onnx-runtime\\Lib\\site-packages\\numpy\\array_api\\__init__.py',
   'PYMODULE'),
  ('numpy.array_api._array_object',
   'C:\\Users\\hsoo\\miniconda3\\envs\\onnx-runtime\\Lib\\site-packages\\numpy\\array_api\\_array_object.py',
   'PYMODULE'),
  ('numpy.array_api._constants',
   'C:\\Users\\hsoo\\miniconda3\\envs\\onnx-runtime\\Lib\\site-packages\\numpy\\array_api\\_constants.py',
   'PYMODULE'),
  ('numpy.array_api._creation_functions',
   'C:\\Users\\hsoo\\miniconda3\\envs\\onnx-runtime\\Lib\\site-packages\\numpy\\array_api\\_creation_functions.py',
   'PYMODULE'),
  ('numpy.array_api._data_type_functions',
   'C:\\Users\\hsoo\\miniconda3\\envs\\onnx-runtime\\Lib\\site-packages\\numpy\\array_api\\_data_type_functions.py',
   'PYMODULE'),
  ('numpy.array_api._dtypes',
   'C:\\Users\\hsoo\\miniconda3\\envs\\onnx-runtime\\Lib\\site-packages\\numpy\\array_api\\_dtypes.py',
   'PYMODULE'),
  ('numpy.array_api._elementwise_functions',
   'C:\\Users\\hsoo\\miniconda3\\envs\\onnx-runtime\\Lib\\site-packages\\numpy\\array_api\\_elementwise_functions.py',
   'PYMODULE'),
  ('numpy.array_api._indexing_functions',
   'C:\\Users\\hsoo\\miniconda3\\envs\\onnx-runtime\\Lib\\site-packages\\numpy\\array_api\\_indexing_functions.py',
   'PYMODULE'),
  ('numpy.array_api._manipulation_functions',
   'C:\\Users\\hsoo\\miniconda3\\envs\\onnx-runtime\\Lib\\site-packages\\numpy\\array_api\\_manipulation_functions.py',
   'PYMODULE'),
  ('numpy.array_api._searching_functions',
   'C:\\Users\\hsoo\\miniconda3\\envs\\onnx-runtime\\Lib\\site-packages\\numpy\\array_api\\_searching_functions.py',
   'PYMODULE'),
  ('numpy.array_api._set_functions',
   'C:\\Users\\hsoo\\miniconda3\\envs\\onnx-runtime\\Lib\\site-packages\\numpy\\array_api\\_set_functions.py',
   'PYMODULE'),
  ('numpy.array_api._sorting_functions',
   'C:\\Users\\hsoo\\miniconda3\\envs\\onnx-runtime\\Lib\\site-packages\\numpy\\array_api\\_sorting_functions.py',
   'PYMODULE'),
  ('numpy.array_api._statistical_functions',
   'C:\\Users\\hsoo\\miniconda3\\envs\\onnx-runtime\\Lib\\site-packages\\numpy\\array_api\\_statistical_functions.py',
   'PYMODULE'),
  ('numpy.array_api._typing',
   'C:\\Users\\hsoo\\miniconda3\\envs\\onnx-runtime\\Lib\\site-packages\\numpy\\array_api\\_typing.py',
   'PYMODULE'),
  ('numpy.array_api._utility_functions',
   'C:\\Users\\hsoo\\miniconda3\\envs\\onnx-runtime\\Lib\\site-packages\\numpy\\array_api\\_utility_functions.py',
   'PYMODULE'),
  ('numpy.array_api.linalg',
   'C:\\Users\\hsoo\\miniconda3\\envs\\onnx-runtime\\Lib\\site-packages\\numpy\\array_api\\linalg.py',
   'PYMODULE'),
  ('numpy.compat',
   'C:\\Users\\hsoo\\miniconda3\\envs\\onnx-runtime\\Lib\\site-packages\\numpy\\compat\\__init__.py',
   'PYMODULE'),
  ('numpy.compat.py3k',
   'C:\\Users\\hsoo\\miniconda3\\envs\\onnx-runtime\\Lib\\site-packages\\numpy\\compat\\py3k.py',
   'PYMODULE'),
  ('numpy.core',
   'C:\\Users\\hsoo\\miniconda3\\envs\\onnx-runtime\\Lib\\site-packages\\numpy\\core\\__init__.py',
   'PYMODULE'),
  ('numpy.core._add_newdocs',
   'C:\\Users\\hsoo\\miniconda3\\envs\\onnx-runtime\\Lib\\site-packages\\numpy\\core\\_add_newdocs.py',
   'PYMODULE'),
  ('numpy.core._add_newdocs_scalars',
   'C:\\Users\\hsoo\\miniconda3\\envs\\onnx-runtime\\Lib\\site-packages\\numpy\\core\\_add_newdocs_scalars.py',
   'PYMODULE'),
  ('numpy.core._asarray',
   'C:\\Users\\hsoo\\miniconda3\\envs\\onnx-runtime\\Lib\\site-packages\\numpy\\core\\_asarray.py',
   'PYMODULE'),
  ('numpy.core._dtype',
   'C:\\Users\\hsoo\\miniconda3\\envs\\onnx-runtime\\Lib\\site-packages\\numpy\\core\\_dtype.py',
   'PYMODULE'),
  ('numpy.core._dtype_ctypes',
   'C:\\Users\\hsoo\\miniconda3\\envs\\onnx-runtime\\Lib\\site-packages\\numpy\\core\\_dtype_ctypes.py',
   'PYMODULE'),
  ('numpy.core._exceptions',
   'C:\\Users\\hsoo\\miniconda3\\envs\\onnx-runtime\\Lib\\site-packages\\numpy\\core\\_exceptions.py',
   'PYMODULE'),
  ('numpy.core._internal',
   'C:\\Users\\hsoo\\miniconda3\\envs\\onnx-runtime\\Lib\\site-packages\\numpy\\core\\_internal.py',
   'PYMODULE'),
  ('numpy.core._machar',
   'C:\\Users\\hsoo\\miniconda3\\envs\\onnx-runtime\\Lib\\site-packages\\numpy\\core\\_machar.py',
   'PYMODULE'),
  ('numpy.core._methods',
   'C:\\Users\\hsoo\\miniconda3\\envs\\onnx-runtime\\Lib\\site-packages\\numpy\\core\\_methods.py',
   'PYMODULE'),
  ('numpy.core._string_helpers',
   'C:\\Users\\hsoo\\miniconda3\\envs\\onnx-runtime\\Lib\\site-packages\\numpy\\core\\_string_helpers.py',
   'PYMODULE'),
  ('numpy.core._type_aliases',
   'C:\\Users\\hsoo\\miniconda3\\envs\\onnx-runtime\\Lib\\site-packages\\numpy\\core\\_type_aliases.py',
   'PYMODULE'),
  ('numpy.core._ufunc_config',
   'C:\\Users\\hsoo\\miniconda3\\envs\\onnx-runtime\\Lib\\site-packages\\numpy\\core\\_ufunc_config.py',
   'PYMODULE'),
  ('numpy.core.arrayprint',
   'C:\\Users\\hsoo\\miniconda3\\envs\\onnx-runtime\\Lib\\site-packages\\numpy\\core\\arrayprint.py',
   'PYMODULE'),
  ('numpy.core.defchararray',
   'C:\\Users\\hsoo\\miniconda3\\envs\\onnx-runtime\\Lib\\site-packages\\numpy\\core\\defchararray.py',
   'PYMODULE'),
  ('numpy.core.einsumfunc',
   'C:\\Users\\hsoo\\miniconda3\\envs\\onnx-runtime\\Lib\\site-packages\\numpy\\core\\einsumfunc.py',
   'PYMODULE'),
  ('numpy.core.fromnumeric',
   'C:\\Users\\hsoo\\miniconda3\\envs\\onnx-runtime\\Lib\\site-packages\\numpy\\core\\fromnumeric.py',
   'PYMODULE'),
  ('numpy.core.function_base',
   'C:\\Users\\hsoo\\miniconda3\\envs\\onnx-runtime\\Lib\\site-packages\\numpy\\core\\function_base.py',
   'PYMODULE'),
  ('numpy.core.getlimits',
   'C:\\Users\\hsoo\\miniconda3\\envs\\onnx-runtime\\Lib\\site-packages\\numpy\\core\\getlimits.py',
   'PYMODULE'),
  ('numpy.core.memmap',
   'C:\\Users\\hsoo\\miniconda3\\envs\\onnx-runtime\\Lib\\site-packages\\numpy\\core\\memmap.py',
   'PYMODULE'),
  ('numpy.core.multiarray',
   'C:\\Users\\hsoo\\miniconda3\\envs\\onnx-runtime\\Lib\\site-packages\\numpy\\core\\multiarray.py',
   'PYMODULE'),
  ('numpy.core.numeric',
   'C:\\Users\\hsoo\\miniconda3\\envs\\onnx-runtime\\Lib\\site-packages\\numpy\\core\\numeric.py',
   'PYMODULE'),
  ('numpy.core.numerictypes',
   'C:\\Users\\hsoo\\miniconda3\\envs\\onnx-runtime\\Lib\\site-packages\\numpy\\core\\numerictypes.py',
   'PYMODULE'),
  ('numpy.core.overrides',
   'C:\\Users\\hsoo\\miniconda3\\envs\\onnx-runtime\\Lib\\site-packages\\numpy\\core\\overrides.py',
   'PYMODULE'),
  ('numpy.core.records',
   'C:\\Users\\hsoo\\miniconda3\\envs\\onnx-runtime\\Lib\\site-packages\\numpy\\core\\records.py',
   'PYMODULE'),
  ('numpy.core.shape_base',
   'C:\\Users\\hsoo\\miniconda3\\envs\\onnx-runtime\\Lib\\site-packages\\numpy\\core\\shape_base.py',
   'PYMODULE'),
  ('numpy.core.umath',
   'C:\\Users\\hsoo\\miniconda3\\envs\\onnx-runtime\\Lib\\site-packages\\numpy\\core\\umath.py',
   'PYMODULE'),
  ('numpy.ctypeslib',
   'C:\\Users\\hsoo\\miniconda3\\envs\\onnx-runtime\\Lib\\site-packages\\numpy\\ctypeslib.py',
   'PYMODULE'),
  ('numpy.dtypes',
   'C:\\Users\\hsoo\\miniconda3\\envs\\onnx-runtime\\Lib\\site-packages\\numpy\\dtypes.py',
   'PYMODULE'),
  ('numpy.exceptions',
   'C:\\Users\\hsoo\\miniconda3\\envs\\onnx-runtime\\Lib\\site-packages\\numpy\\exceptions.py',
   'PYMODULE'),
  ('numpy.fft',
   'C:\\Users\\hsoo\\miniconda3\\envs\\onnx-runtime\\Lib\\site-packages\\numpy\\fft\\__init__.py',
   'PYMODULE'),
  ('numpy.fft._pocketfft',
   'C:\\Users\\hsoo\\miniconda3\\envs\\onnx-runtime\\Lib\\site-packages\\numpy\\fft\\_pocketfft.py',
   'PYMODULE'),
  ('numpy.fft.helper',
   'C:\\Users\\hsoo\\miniconda3\\envs\\onnx-runtime\\Lib\\site-packages\\numpy\\fft\\helper.py',
   'PYMODULE'),
  ('numpy.lib',
   'C:\\Users\\hsoo\\miniconda3\\envs\\onnx-runtime\\Lib\\site-packages\\numpy\\lib\\__init__.py',
   'PYMODULE'),
  ('numpy.lib._datasource',
   'C:\\Users\\hsoo\\miniconda3\\envs\\onnx-runtime\\Lib\\site-packages\\numpy\\lib\\_datasource.py',
   'PYMODULE'),
  ('numpy.lib._iotools',
   'C:\\Users\\hsoo\\miniconda3\\envs\\onnx-runtime\\Lib\\site-packages\\numpy\\lib\\_iotools.py',
   'PYMODULE'),
  ('numpy.lib._version',
   'C:\\Users\\hsoo\\miniconda3\\envs\\onnx-runtime\\Lib\\site-packages\\numpy\\lib\\_version.py',
   'PYMODULE'),
  ('numpy.lib.arraypad',
   'C:\\Users\\hsoo\\miniconda3\\envs\\onnx-runtime\\Lib\\site-packages\\numpy\\lib\\arraypad.py',
   'PYMODULE'),
  ('numpy.lib.arraysetops',
   'C:\\Users\\hsoo\\miniconda3\\envs\\onnx-runtime\\Lib\\site-packages\\numpy\\lib\\arraysetops.py',
   'PYMODULE'),
  ('numpy.lib.arrayterator',
   'C:\\Users\\hsoo\\miniconda3\\envs\\onnx-runtime\\Lib\\site-packages\\numpy\\lib\\arrayterator.py',
   'PYMODULE'),
  ('numpy.lib.format',
   'C:\\Users\\hsoo\\miniconda3\\envs\\onnx-runtime\\Lib\\site-packages\\numpy\\lib\\format.py',
   'PYMODULE'),
  ('numpy.lib.function_base',
   'C:\\Users\\hsoo\\miniconda3\\envs\\onnx-runtime\\Lib\\site-packages\\numpy\\lib\\function_base.py',
   'PYMODULE'),
  ('numpy.lib.histograms',
   'C:\\Users\\hsoo\\miniconda3\\envs\\onnx-runtime\\Lib\\site-packages\\numpy\\lib\\histograms.py',
   'PYMODULE'),
  ('numpy.lib.index_tricks',
   'C:\\Users\\hsoo\\miniconda3\\envs\\onnx-runtime\\Lib\\site-packages\\numpy\\lib\\index_tricks.py',
   'PYMODULE'),
  ('numpy.lib.mixins',
   'C:\\Users\\hsoo\\miniconda3\\envs\\onnx-runtime\\Lib\\site-packages\\numpy\\lib\\mixins.py',
   'PYMODULE'),
  ('numpy.lib.nanfunctions',
   'C:\\Users\\hsoo\\miniconda3\\envs\\onnx-runtime\\Lib\\site-packages\\numpy\\lib\\nanfunctions.py',
   'PYMODULE'),
  ('numpy.lib.npyio',
   'C:\\Users\\hsoo\\miniconda3\\envs\\onnx-runtime\\Lib\\site-packages\\numpy\\lib\\npyio.py',
   'PYMODULE'),
  ('numpy.lib.polynomial',
   'C:\\Users\\hsoo\\miniconda3\\envs\\onnx-runtime\\Lib\\site-packages\\numpy\\lib\\polynomial.py',
   'PYMODULE'),
  ('numpy.lib.recfunctions',
   'C:\\Users\\hsoo\\miniconda3\\envs\\onnx-runtime\\Lib\\site-packages\\numpy\\lib\\recfunctions.py',
   'PYMODULE'),
  ('numpy.lib.scimath',
   'C:\\Users\\hsoo\\miniconda3\\envs\\onnx-runtime\\Lib\\site-packages\\numpy\\lib\\scimath.py',
   'PYMODULE'),
  ('numpy.lib.shape_base',
   'C:\\Users\\hsoo\\miniconda3\\envs\\onnx-runtime\\Lib\\site-packages\\numpy\\lib\\shape_base.py',
   'PYMODULE'),
  ('numpy.lib.stride_tricks',
   'C:\\Users\\hsoo\\miniconda3\\envs\\onnx-runtime\\Lib\\site-packages\\numpy\\lib\\stride_tricks.py',
   'PYMODULE'),
  ('numpy.lib.twodim_base',
   'C:\\Users\\hsoo\\miniconda3\\envs\\onnx-runtime\\Lib\\site-packages\\numpy\\lib\\twodim_base.py',
   'PYMODULE'),
  ('numpy.lib.type_check',
   'C:\\Users\\hsoo\\miniconda3\\envs\\onnx-runtime\\Lib\\site-packages\\numpy\\lib\\type_check.py',
   'PYMODULE'),
  ('numpy.lib.ufunclike',
   'C:\\Users\\hsoo\\miniconda3\\envs\\onnx-runtime\\Lib\\site-packages\\numpy\\lib\\ufunclike.py',
   'PYMODULE'),
  ('numpy.lib.utils',
   'C:\\Users\\hsoo\\miniconda3\\envs\\onnx-runtime\\Lib\\site-packages\\numpy\\lib\\utils.py',
   'PYMODULE'),
  ('numpy.linalg',
   'C:\\Users\\hsoo\\miniconda3\\envs\\onnx-runtime\\Lib\\site-packages\\numpy\\linalg\\__init__.py',
   'PYMODULE'),
  ('numpy.linalg.linalg',
   'C:\\Users\\hsoo\\miniconda3\\envs\\onnx-runtime\\Lib\\site-packages\\numpy\\linalg\\linalg.py',
   'PYMODULE'),
  ('numpy.ma',
   'C:\\Users\\hsoo\\miniconda3\\envs\\onnx-runtime\\Lib\\site-packages\\numpy\\ma\\__init__.py',
   'PYMODULE'),
  ('numpy.ma.core',
   'C:\\Users\\hsoo\\miniconda3\\envs\\onnx-runtime\\Lib\\site-packages\\numpy\\ma\\core.py',
   'PYMODULE'),
  ('numpy.ma.extras',
   'C:\\Users\\hsoo\\miniconda3\\envs\\onnx-runtime\\Lib\\site-packages\\numpy\\ma\\extras.py',
   'PYMODULE'),
  ('numpy.ma.mrecords',
   'C:\\Users\\hsoo\\miniconda3\\envs\\onnx-runtime\\Lib\\site-packages\\numpy\\ma\\mrecords.py',
   'PYMODULE'),
  ('numpy.matrixlib',
   'C:\\Users\\hsoo\\miniconda3\\envs\\onnx-runtime\\Lib\\site-packages\\numpy\\matrixlib\\__init__.py',
   'PYMODULE'),
  ('numpy.matrixlib.defmatrix',
   'C:\\Users\\hsoo\\miniconda3\\envs\\onnx-runtime\\Lib\\site-packages\\numpy\\matrixlib\\defmatrix.py',
   'PYMODULE'),
  ('numpy.polynomial',
   'C:\\Users\\hsoo\\miniconda3\\envs\\onnx-runtime\\Lib\\site-packages\\numpy\\polynomial\\__init__.py',
   'PYMODULE'),
  ('numpy.polynomial._polybase',
   'C:\\Users\\hsoo\\miniconda3\\envs\\onnx-runtime\\Lib\\site-packages\\numpy\\polynomial\\_polybase.py',
   'PYMODULE'),
  ('numpy.polynomial.chebyshev',
   'C:\\Users\\hsoo\\miniconda3\\envs\\onnx-runtime\\Lib\\site-packages\\numpy\\polynomial\\chebyshev.py',
   'PYMODULE'),
  ('numpy.polynomial.hermite',
   'C:\\Users\\hsoo\\miniconda3\\envs\\onnx-runtime\\Lib\\site-packages\\numpy\\polynomial\\hermite.py',
   'PYMODULE'),
  ('numpy.polynomial.hermite_e',
   'C:\\Users\\hsoo\\miniconda3\\envs\\onnx-runtime\\Lib\\site-packages\\numpy\\polynomial\\hermite_e.py',
   'PYMODULE'),
  ('numpy.polynomial.laguerre',
   'C:\\Users\\hsoo\\miniconda3\\envs\\onnx-runtime\\Lib\\site-packages\\numpy\\polynomial\\laguerre.py',
   'PYMODULE'),
  ('numpy.polynomial.legendre',
   'C:\\Users\\hsoo\\miniconda3\\envs\\onnx-runtime\\Lib\\site-packages\\numpy\\polynomial\\legendre.py',
   'PYMODULE'),
  ('numpy.polynomial.polynomial',
   'C:\\Users\\hsoo\\miniconda3\\envs\\onnx-runtime\\Lib\\site-packages\\numpy\\polynomial\\polynomial.py',
   'PYMODULE'),
  ('numpy.polynomial.polyutils',
   'C:\\Users\\hsoo\\miniconda3\\envs\\onnx-runtime\\Lib\\site-packages\\numpy\\polynomial\\polyutils.py',
   'PYMODULE'),
  ('numpy.random',
   'C:\\Users\\hsoo\\miniconda3\\envs\\onnx-runtime\\Lib\\site-packages\\numpy\\random\\__init__.py',
   'PYMODULE'),
  ('numpy.random._pickle',
   'C:\\Users\\hsoo\\miniconda3\\envs\\onnx-runtime\\Lib\\site-packages\\numpy\\random\\_pickle.py',
   'PYMODULE'),
  ('numpy.testing',
   'C:\\Users\\hsoo\\miniconda3\\envs\\onnx-runtime\\Lib\\site-packages\\numpy\\testing\\__init__.py',
   'PYMODULE'),
  ('numpy.testing._private',
   'C:\\Users\\hsoo\\miniconda3\\envs\\onnx-runtime\\Lib\\site-packages\\numpy\\testing\\_private\\__init__.py',
   'PYMODULE'),
  ('numpy.testing._private.extbuild',
   'C:\\Users\\hsoo\\miniconda3\\envs\\onnx-runtime\\Lib\\site-packages\\numpy\\testing\\_private\\extbuild.py',
   'PYMODULE'),
  ('numpy.testing._private.utils',
   'C:\\Users\\hsoo\\miniconda3\\envs\\onnx-runtime\\Lib\\site-packages\\numpy\\testing\\_private\\utils.py',
   'PYMODULE'),
  ('numpy.testing.overrides',
   'C:\\Users\\hsoo\\miniconda3\\envs\\onnx-runtime\\Lib\\site-packages\\numpy\\testing\\overrides.py',
   'PYMODULE'),
  ('numpy.typing',
   'C:\\Users\\hsoo\\miniconda3\\envs\\onnx-runtime\\Lib\\site-packages\\numpy\\typing\\__init__.py',
   'PYMODULE'),
  ('numpy.version',
   'C:\\Users\\hsoo\\miniconda3\\envs\\onnx-runtime\\Lib\\site-packages\\numpy\\version.py',
   'PYMODULE'),
  ('onnxruntime',
   'C:\\Users\\hsoo\\miniconda3\\envs\\onnx-runtime\\Lib\\site-packages\\onnxruntime\\__init__.py',
   'PYMODULE'),
  ('onnxruntime.capi',
   'C:\\Users\\hsoo\\miniconda3\\envs\\onnx-runtime\\Lib\\site-packages\\onnxruntime\\capi\\__init__.py',
   'PYMODULE'),
  ('onnxruntime.capi._ld_preload',
   'C:\\Users\\hsoo\\miniconda3\\envs\\onnx-runtime\\Lib\\site-packages\\onnxruntime\\capi\\_ld_preload.py',
   'PYMODULE'),
  ('onnxruntime.capi._pybind_state',
   'C:\\Users\\hsoo\\miniconda3\\envs\\onnx-runtime\\Lib\\site-packages\\onnxruntime\\capi\\_pybind_state.py',
   'PYMODULE'),
  ('onnxruntime.capi.onnxruntime_collect_build_info',
   'C:\\Users\\hsoo\\miniconda3\\envs\\onnx-runtime\\Lib\\site-packages\\onnxruntime\\capi\\onnxruntime_collect_build_info.py',
   'PYMODULE'),
  ('onnxruntime.capi.onnxruntime_inference_collection',
   'C:\\Users\\hsoo\\miniconda3\\envs\\onnx-runtime\\Lib\\site-packages\\onnxruntime\\capi\\onnxruntime_inference_collection.py',
   'PYMODULE'),
  ('onnxruntime.capi.onnxruntime_validation',
   'C:\\Users\\hsoo\\miniconda3\\envs\\onnx-runtime\\Lib\\site-packages\\onnxruntime\\capi\\onnxruntime_validation.py',
   'PYMODULE'),
  ('onnxruntime.capi.training',
   'C:\\Users\\hsoo\\miniconda3\\envs\\onnx-runtime\\Lib\\site-packages\\onnxruntime\\capi\\training\\__init__.py',
   'PYMODULE'),
  ('onnxruntime.capi.version_info',
   'C:\\Users\\hsoo\\miniconda3\\envs\\onnx-runtime\\Lib\\site-packages\\onnxruntime\\capi\\version_info.py',
   'PYMODULE'),
  ('opcode',
   'C:\\Users\\hsoo\\miniconda3\\envs\\onnx-runtime\\Lib\\opcode.py',
   'PYMODULE'),
  ('pathlib',
   'C:\\Users\\hsoo\\miniconda3\\envs\\onnx-runtime\\Lib\\pathlib.py',
   'PYMODULE'),
  ('pdb',
   'C:\\Users\\hsoo\\miniconda3\\envs\\onnx-runtime\\Lib\\pdb.py',
   'PYMODULE'),
  ('pickle',
   'C:\\Users\\hsoo\\miniconda3\\envs\\onnx-runtime\\Lib\\pickle.py',
   'PYMODULE'),
  ('pkgutil',
   'C:\\Users\\hsoo\\miniconda3\\envs\\onnx-runtime\\Lib\\pkgutil.py',
   'PYMODULE'),
  ('platform',
   'C:\\Users\\hsoo\\miniconda3\\envs\\onnx-runtime\\Lib\\platform.py',
   'PYMODULE'),
  ('pprint',
   'C:\\Users\\hsoo\\miniconda3\\envs\\onnx-runtime\\Lib\\pprint.py',
   'PYMODULE'),
  ('py_compile',
   'C:\\Users\\hsoo\\miniconda3\\envs\\onnx-runtime\\Lib\\py_compile.py',
   'PYMODULE'),
  ('pydoc',
   'C:\\Users\\hsoo\\miniconda3\\envs\\onnx-runtime\\Lib\\pydoc.py',
   'PYMODULE'),
  ('pydoc_data',
   'C:\\Users\\hsoo\\miniconda3\\envs\\onnx-runtime\\Lib\\pydoc_data\\__init__.py',
   'PYMODULE'),
  ('pydoc_data.topics',
   'C:\\Users\\hsoo\\miniconda3\\envs\\onnx-runtime\\Lib\\pydoc_data\\topics.py',
   'PYMODULE'),
  ('pyreadline3',
   'C:\\Users\\hsoo\\miniconda3\\envs\\onnx-runtime\\Lib\\site-packages\\pyreadline3\\__init__.py',
   'PYMODULE'),
  ('pyreadline3.clipboard',
   'C:\\Users\\hsoo\\miniconda3\\envs\\onnx-runtime\\Lib\\site-packages\\pyreadline3\\clipboard\\__init__.py',
   'PYMODULE'),
  ('pyreadline3.clipboard.ironpython_clipboard',
   'C:\\Users\\hsoo\\miniconda3\\envs\\onnx-runtime\\Lib\\site-packages\\pyreadline3\\clipboard\\ironpython_clipboard.py',
   'PYMODULE'),
  ('pyreadline3.clipboard.no_clipboard',
   'C:\\Users\\hsoo\\miniconda3\\envs\\onnx-runtime\\Lib\\site-packages\\pyreadline3\\clipboard\\no_clipboard.py',
   'PYMODULE'),
  ('pyreadline3.clipboard.win32_clipboard',
   'C:\\Users\\hsoo\\miniconda3\\envs\\onnx-runtime\\Lib\\site-packages\\pyreadline3\\clipboard\\win32_clipboard.py',
   'PYMODULE'),
  ('pyreadline3.console',
   'C:\\Users\\hsoo\\miniconda3\\envs\\onnx-runtime\\Lib\\site-packages\\pyreadline3\\console\\__init__.py',
   'PYMODULE'),
  ('pyreadline3.console.ansi',
   'C:\\Users\\hsoo\\miniconda3\\envs\\onnx-runtime\\Lib\\site-packages\\pyreadline3\\console\\ansi.py',
   'PYMODULE'),
  ('pyreadline3.console.console',
   'C:\\Users\\hsoo\\miniconda3\\envs\\onnx-runtime\\Lib\\site-packages\\pyreadline3\\console\\console.py',
   'PYMODULE'),
  ('pyreadline3.console.event',
   'C:\\Users\\hsoo\\miniconda3\\envs\\onnx-runtime\\Lib\\site-packages\\pyreadline3\\console\\event.py',
   'PYMODULE'),
  ('pyreadline3.console.ironpython_console',
   'C:\\Users\\hsoo\\miniconda3\\envs\\onnx-runtime\\Lib\\site-packages\\pyreadline3\\console\\ironpython_console.py',
   'PYMODULE'),
  ('pyreadline3.error',
   'C:\\Users\\hsoo\\miniconda3\\envs\\onnx-runtime\\Lib\\site-packages\\pyreadline3\\error.py',
   'PYMODULE'),
  ('pyreadline3.keysyms',
   'C:\\Users\\hsoo\\miniconda3\\envs\\onnx-runtime\\Lib\\site-packages\\pyreadline3\\keysyms\\__init__.py',
   'PYMODULE'),
  ('pyreadline3.keysyms.common',
   'C:\\Users\\hsoo\\miniconda3\\envs\\onnx-runtime\\Lib\\site-packages\\pyreadline3\\keysyms\\common.py',
   'PYMODULE'),
  ('pyreadline3.keysyms.ironpython_keysyms',
   'C:\\Users\\hsoo\\miniconda3\\envs\\onnx-runtime\\Lib\\site-packages\\pyreadline3\\keysyms\\ironpython_keysyms.py',
   'PYMODULE'),
  ('pyreadline3.keysyms.keysyms',
   'C:\\Users\\hsoo\\miniconda3\\envs\\onnx-runtime\\Lib\\site-packages\\pyreadline3\\keysyms\\keysyms.py',
   'PYMODULE'),
  ('pyreadline3.keysyms.winconstants',
   'C:\\Users\\hsoo\\miniconda3\\envs\\onnx-runtime\\Lib\\site-packages\\pyreadline3\\keysyms\\winconstants.py',
   'PYMODULE'),
  ('pyreadline3.lineeditor',
   'C:\\Users\\hsoo\\miniconda3\\envs\\onnx-runtime\\Lib\\site-packages\\pyreadline3\\lineeditor\\__init__.py',
   'PYMODULE'),
  ('pyreadline3.lineeditor.history',
   'C:\\Users\\hsoo\\miniconda3\\envs\\onnx-runtime\\Lib\\site-packages\\pyreadline3\\lineeditor\\history.py',
   'PYMODULE'),
  ('pyreadline3.lineeditor.lineobj',
   'C:\\Users\\hsoo\\miniconda3\\envs\\onnx-runtime\\Lib\\site-packages\\pyreadline3\\lineeditor\\lineobj.py',
   'PYMODULE'),
  ('pyreadline3.lineeditor.wordmatcher',
   'C:\\Users\\hsoo\\miniconda3\\envs\\onnx-runtime\\Lib\\site-packages\\pyreadline3\\lineeditor\\wordmatcher.py',
   'PYMODULE'),
  ('pyreadline3.logger',
   'C:\\Users\\hsoo\\miniconda3\\envs\\onnx-runtime\\Lib\\site-packages\\pyreadline3\\logger.py',
   'PYMODULE'),
  ('pyreadline3.modes',
   'C:\\Users\\hsoo\\miniconda3\\envs\\onnx-runtime\\Lib\\site-packages\\pyreadline3\\modes\\__init__.py',
   'PYMODULE'),
  ('pyreadline3.modes.basemode',
   'C:\\Users\\hsoo\\miniconda3\\envs\\onnx-runtime\\Lib\\site-packages\\pyreadline3\\modes\\basemode.py',
   'PYMODULE'),
  ('pyreadline3.modes.emacs',
   'C:\\Users\\hsoo\\miniconda3\\envs\\onnx-runtime\\Lib\\site-packages\\pyreadline3\\modes\\emacs.py',
   'PYMODULE'),
  ('pyreadline3.modes.notemacs',
   'C:\\Users\\hsoo\\miniconda3\\envs\\onnx-runtime\\Lib\\site-packages\\pyreadline3\\modes\\notemacs.py',
   'PYMODULE'),
  ('pyreadline3.modes.vi',
   'C:\\Users\\hsoo\\miniconda3\\envs\\onnx-runtime\\Lib\\site-packages\\pyreadline3\\modes\\vi.py',
   'PYMODULE'),
  ('pyreadline3.py3k_compat',
   'C:\\Users\\hsoo\\miniconda3\\envs\\onnx-runtime\\Lib\\site-packages\\pyreadline3\\py3k_compat.py',
   'PYMODULE'),
  ('pyreadline3.release',
   'C:\\Users\\hsoo\\miniconda3\\envs\\onnx-runtime\\Lib\\site-packages\\pyreadline3\\release.py',
   'PYMODULE'),
  ('pyreadline3.rlmain',
   'C:\\Users\\hsoo\\miniconda3\\envs\\onnx-runtime\\Lib\\site-packages\\pyreadline3\\rlmain.py',
   'PYMODULE'),
  ('pyreadline3.unicode_helper',
   'C:\\Users\\hsoo\\miniconda3\\envs\\onnx-runtime\\Lib\\site-packages\\pyreadline3\\unicode_helper.py',
   'PYMODULE'),
  ('queue',
   'C:\\Users\\hsoo\\miniconda3\\envs\\onnx-runtime\\Lib\\queue.py',
   'PYMODULE'),
  ('quopri',
   'C:\\Users\\hsoo\\miniconda3\\envs\\onnx-runtime\\Lib\\quopri.py',
   'PYMODULE'),
  ('random',
   'C:\\Users\\hsoo\\miniconda3\\envs\\onnx-runtime\\Lib\\random.py',
   'PYMODULE'),
  ('readline',
   'C:\\Users\\hsoo\\miniconda3\\envs\\onnx-runtime\\Lib\\site-packages\\readline.py',
   'PYMODULE'),
  ('runpy',
   'C:\\Users\\hsoo\\miniconda3\\envs\\onnx-runtime\\Lib\\runpy.py',
   'PYMODULE'),
  ('secrets',
   'C:\\Users\\hsoo\\miniconda3\\envs\\onnx-runtime\\Lib\\secrets.py',
   'PYMODULE'),
  ('selectors',
   'C:\\Users\\hsoo\\miniconda3\\envs\\onnx-runtime\\Lib\\selectors.py',
   'PYMODULE'),
  ('shlex',
   'C:\\Users\\hsoo\\miniconda3\\envs\\onnx-runtime\\Lib\\shlex.py',
   'PYMODULE'),
  ('shutil',
   'C:\\Users\\hsoo\\miniconda3\\envs\\onnx-runtime\\Lib\\shutil.py',
   'PYMODULE'),
  ('signal',
   'C:\\Users\\hsoo\\miniconda3\\envs\\onnx-runtime\\Lib\\signal.py',
   'PYMODULE'),
  ('smtplib',
   'C:\\Users\\hsoo\\miniconda3\\envs\\onnx-runtime\\Lib\\smtplib.py',
   'PYMODULE'),
  ('socket',
   'C:\\Users\\hsoo\\miniconda3\\envs\\onnx-runtime\\Lib\\socket.py',
   'PYMODULE'),
  ('socketserver',
   'C:\\Users\\hsoo\\miniconda3\\envs\\onnx-runtime\\Lib\\socketserver.py',
   'PYMODULE'),
  ('ssl',
   'C:\\Users\\hsoo\\miniconda3\\envs\\onnx-runtime\\Lib\\ssl.py',
   'PYMODULE'),
  ('statistics',
   'C:\\Users\\hsoo\\miniconda3\\envs\\onnx-runtime\\Lib\\statistics.py',
   'PYMODULE'),
  ('string',
   'C:\\Users\\hsoo\\miniconda3\\envs\\onnx-runtime\\Lib\\string.py',
   'PYMODULE'),
  ('stringprep',
   'C:\\Users\\hsoo\\miniconda3\\envs\\onnx-runtime\\Lib\\stringprep.py',
   'PYMODULE'),
  ('subprocess',
   'C:\\Users\\hsoo\\miniconda3\\envs\\onnx-runtime\\Lib\\subprocess.py',
   'PYMODULE'),
  ('sysconfig',
   'C:\\Users\\hsoo\\miniconda3\\envs\\onnx-runtime\\Lib\\sysconfig.py',
   'PYMODULE'),
  ('tarfile',
   'C:\\Users\\hsoo\\miniconda3\\envs\\onnx-runtime\\Lib\\tarfile.py',
   'PYMODULE'),
  ('tempfile',
   'C:\\Users\\hsoo\\miniconda3\\envs\\onnx-runtime\\Lib\\tempfile.py',
   'PYMODULE'),
  ('textwrap',
   'C:\\Users\\hsoo\\miniconda3\\envs\\onnx-runtime\\Lib\\textwrap.py',
   'PYMODULE'),
  ('threading',
   'C:\\Users\\hsoo\\miniconda3\\envs\\onnx-runtime\\Lib\\threading.py',
   'PYMODULE'),
  ('token',
   'C:\\Users\\hsoo\\miniconda3\\envs\\onnx-runtime\\Lib\\token.py',
   'PYMODULE'),
  ('tokenize',
   'C:\\Users\\hsoo\\miniconda3\\envs\\onnx-runtime\\Lib\\tokenize.py',
   'PYMODULE'),
  ('tracemalloc',
   'C:\\Users\\hsoo\\miniconda3\\envs\\onnx-runtime\\Lib\\tracemalloc.py',
   'PYMODULE'),
  ('tty',
   'C:\\Users\\hsoo\\miniconda3\\envs\\onnx-runtime\\Lib\\tty.py',
   'PYMODULE'),
  ('typing',
   'C:\\Users\\hsoo\\miniconda3\\envs\\onnx-runtime\\Lib\\typing.py',
   'PYMODULE'),
  ('unittest',
   'C:\\Users\\hsoo\\miniconda3\\envs\\onnx-runtime\\Lib\\unittest\\__init__.py',
   'PYMODULE'),
  ('unittest._log',
   'C:\\Users\\hsoo\\miniconda3\\envs\\onnx-runtime\\Lib\\unittest\\_log.py',
   'PYMODULE'),
  ('unittest.async_case',
   'C:\\Users\\hsoo\\miniconda3\\envs\\onnx-runtime\\Lib\\unittest\\async_case.py',
   'PYMODULE'),
  ('unittest.case',
   'C:\\Users\\hsoo\\miniconda3\\envs\\onnx-runtime\\Lib\\unittest\\case.py',
   'PYMODULE'),
  ('unittest.loader',
   'C:\\Users\\hsoo\\miniconda3\\envs\\onnx-runtime\\Lib\\unittest\\loader.py',
   'PYMODULE'),
  ('unittest.main',
   'C:\\Users\\hsoo\\miniconda3\\envs\\onnx-runtime\\Lib\\unittest\\main.py',
   'PYMODULE'),
  ('unittest.result',
   'C:\\Users\\hsoo\\miniconda3\\envs\\onnx-runtime\\Lib\\unittest\\result.py',
   'PYMODULE'),
  ('unittest.runner',
   'C:\\Users\\hsoo\\miniconda3\\envs\\onnx-runtime\\Lib\\unittest\\runner.py',
   'PYMODULE'),
  ('unittest.signals',
   'C:\\Users\\hsoo\\miniconda3\\envs\\onnx-runtime\\Lib\\unittest\\signals.py',
   'PYMODULE'),
  ('unittest.suite',
   'C:\\Users\\hsoo\\miniconda3\\envs\\onnx-runtime\\Lib\\unittest\\suite.py',
   'PYMODULE'),
  ('unittest.util',
   'C:\\Users\\hsoo\\miniconda3\\envs\\onnx-runtime\\Lib\\unittest\\util.py',
   'PYMODULE'),
  ('urllib',
   'C:\\Users\\hsoo\\miniconda3\\envs\\onnx-runtime\\Lib\\urllib\\__init__.py',
   'PYMODULE'),
  ('urllib.error',
   'C:\\Users\\hsoo\\miniconda3\\envs\\onnx-runtime\\Lib\\urllib\\error.py',
   'PYMODULE'),
  ('urllib.parse',
   'C:\\Users\\hsoo\\miniconda3\\envs\\onnx-runtime\\Lib\\urllib\\parse.py',
   'PYMODULE'),
  ('urllib.request',
   'C:\\Users\\hsoo\\miniconda3\\envs\\onnx-runtime\\Lib\\urllib\\request.py',
   'PYMODULE'),
  ('urllib.response',
   'C:\\Users\\hsoo\\miniconda3\\envs\\onnx-runtime\\Lib\\urllib\\response.py',
   'PYMODULE'),
  ('webbrowser',
   'C:\\Users\\hsoo\\miniconda3\\envs\\onnx-runtime\\Lib\\webbrowser.py',
   'PYMODULE'),
  ('xml',
   'C:\\Users\\hsoo\\miniconda3\\envs\\onnx-runtime\\Lib\\xml\\__init__.py',
   'PYMODULE'),
  ('xml.parsers',
   'C:\\Users\\hsoo\\miniconda3\\envs\\onnx-runtime\\Lib\\xml\\parsers\\__init__.py',
   'PYMODULE'),
  ('xml.parsers.expat',
   'C:\\Users\\hsoo\\miniconda3\\envs\\onnx-runtime\\Lib\\xml\\parsers\\expat.py',
   'PYMODULE'),
  ('xml.sax',
   'C:\\Users\\hsoo\\miniconda3\\envs\\onnx-runtime\\Lib\\xml\\sax\\__init__.py',
   'PYMODULE'),
  ('xml.sax._exceptions',
   'C:\\Users\\hsoo\\miniconda3\\envs\\onnx-runtime\\Lib\\xml\\sax\\_exceptions.py',
   'PYMODULE'),
  ('xml.sax.expatreader',
   'C:\\Users\\hsoo\\miniconda3\\envs\\onnx-runtime\\Lib\\xml\\sax\\expatreader.py',
   'PYMODULE'),
  ('xml.sax.handler',
   'C:\\Users\\hsoo\\miniconda3\\envs\\onnx-runtime\\Lib\\xml\\sax\\handler.py',
   'PYMODULE'),
  ('xml.sax.saxutils',
   'C:\\Users\\hsoo\\miniconda3\\envs\\onnx-runtime\\Lib\\xml\\sax\\saxutils.py',
   'PYMODULE'),
  ('xml.sax.xmlreader',
   'C:\\Users\\hsoo\\miniconda3\\envs\\onnx-runtime\\Lib\\xml\\sax\\xmlreader.py',
   'PYMODULE'),
  ('xmlrpc',
   'C:\\Users\\hsoo\\miniconda3\\envs\\onnx-runtime\\Lib\\xmlrpc\\__init__.py',
   'PYMODULE'),
  ('xmlrpc.client',
   'C:\\Users\\hsoo\\miniconda3\\envs\\onnx-runtime\\Lib\\xmlrpc\\client.py',
   'PYMODULE'),
  ('zipfile',
   'C:\\Users\\hsoo\\miniconda3\\envs\\onnx-runtime\\Lib\\zipfile.py',
   'PYMODULE'),
  ('zipimport',
   'C:\\Users\\hsoo\\miniconda3\\envs\\onnx-runtime\\Lib\\zipimport.py',
   'PYMODULE')])
